%YAML 1.1
%TAG !u! tag:unity3d.com,2011:
--- !u!114 &11400000
MonoBehaviour:
  m_ObjectHideFlags: 0
  m_CorrespondingSourceObject: {fileID: 0}
  m_PrefabInstance: {fileID: 0}
  m_PrefabAsset: {fileID: 0}
  m_GameObject: {fileID: 0}
  m_Enabled: 1
  m_EditorHideFlags: 0
  m_Script: {fileID: 11500000, guid: f73b971270a448d99c8ad7dc268e9376, type: 3}
  m_Name: CoinFactory
  m_EditorClassIdentifier: 
  _empty:
    _coinPrefab: {fileID: 6947323265836256743, guid: 813ef48c2344a1944990f57b529c9e0e,
      type: 3}
    _valueToAdd: 0
  _small:
    _coinPrefab: {fileID: 8934061661638882942, guid: ec51e73cf1710c74d9849db23c7ad8e8,
      type: 3}
    _valueToAdd: 5
  _big:
    _coinPrefab: {fileID: 4509480172280038172, guid: 606b22dcbdaca5a4fa4b39765dcf4fbc,
      type: 3}
    _valueToAdd: 10
