%YAML 1.1
%TAG !u! tag:unity3d.com,2011:
--- !u!114 &11400000
MonoBehaviour:
  m_ObjectHideFlags: 0
  m_CorrespondingSourceObject: {fileID: 0}
  m_PrefabInstance: {fileID: 0}
  m_PrefabAsset: {fileID: 0}
  m_GameObject: {fileID: 0}
  m_Enabled: 1
  m_EditorHideFlags: 0
  m_Script: {fileID: 11500000, guid: c42541d94c6eb3541b1ce374c72955f8, type: 3}
  m_Name: EnemyFactory
  m_EditorClassIdentifier: 
  _humanPrefab: {fileID: 2270666406109266562, guid: 450632b2af79bcc4c9ea37c39dec979c,
    type: 3}
  _orkPrefab: {fileID: 2555855778745543727, guid: 8d2fc46abf1783740b882bd368ad80cd,
    type: 3}
  _elfPrefab: {fileID: 459527277713174570, guid: a4839b79244ad6149a6767564fa70b70,
    type: 3}
  _vampirePrefab: {fileID: -3897240451679244963, guid: 07d446855ba62ce4f95d0c9f57169214,
    type: 3}
